{
	"105": {
		"configs": {
			"device_name": "Device 105",
			"device_ip_address": "192.168.1.105",
			"device_id": "105",
			"web_server_port_no": "443"
		},
		"objects": [{
			"objects_id": "1",
			"object_name": "Hall 7 - Projector Front",
			"location_id": "5ca72064eca4fe02912d0e8a",
			"created": "2019-04-05T09:15:34.781Z",
			"property": {
				"name": "Hall 7 - Projector Front",
				"serial_no": "0",
				"installed_date": "04\/01\/2019 5:14 PM"
			},
			"iop_infor": [{
				"id": "5ca71cb6a6902702c895fe20",
				"key": "SwitchOnOff",
				"value": "bacnet:\/\/252_192,168,1,252,186,192\/binary-value\/15\/present-value?_=DO_3",
				"data_iop": {
					"id": "5ca71319a6902702c895fdfe",
					"pointproperty": "5be2a7695ede512122a1b852",
					"pointtype": "Binary Output",
					"pointname": "SwitchOnOff"
				}
			}],
			"template_info": {
				"fn": [{
					"function_name": "Swtich",
					"id": "5ca716b6a6902702c895fe1c",
					"function_parameter_name": "STOP START",
					"io_point_name": "SwitchOnOff"
				}],
				"rndl": [],
				"rnsc": [],
				"rnan": []
			}
		 },
		 {
			"objects_id": "6",
			"object_name": "Hall 7 - AirCon Right",
			"location_id": "5ca72064eca4fe02912d0e8a",
			"created": "2019-04-05T09:20:34.033Z",
			"property": {
				"installed_date": "04\/01\/2019 5:20 PM",
				"serial_no": "1",
				"name": "Hall 7 - AirCon Right"
			},
			"iop_infor": [{
				"id": "5caac57abec78f02d5096a43",
				"key": "SwitchFanSpeed",
				"value": "bacnet:\/\/252_192,168,1,252,186,192\/analog-value\/25\/present-value?_=AO_2_PWM",
				"data_iop": {
					"style": "userlookup",
					"id": "5ca71319a6902702c895fdfe",
					"pointproperty": "5caac33314175702da11cea3",
					"pointtype": "Multistate Value",
					"pointname": "SwitchFanSpeed"
				}
			}, {
				"id": "5caac57abec78f02d5096a42",
				"key": "TempSetpoint",
				"value": "bacnet:\/\/252_192,168,1,252,186,192\/analog-value\/85\/present-value?_=Fan2_TSP_1_11",
				"data_iop": {
					"id": "5ca71356a6902702c895fe00",
					"pointproperty": "5be2a7af5ede512122a1b85f",
					"pointtype": "Analog Value",
					"pointname": "TempSetpoint"
				}
			}],
			"template_info": {
				"fn": [{
					"function_name": "OpenCloseControl",
					"_id": "5ca715b6a6902702c895fe16",
					"function_parameter_name": "Stop Start",
					"io_point_name": "SwitchFanSpeed"
				}, {
					"function_name": "AdjustSetPoint",
					"_id": "5ca71689a6902702c895fe1a",
					"function_parameter_name": "Room Temp Set Point",
					"io_point_name": "TempSetpoint"
				}],
				"rndl": [],
				"rnsc": [],
				"rnan": []
			}
		 },
		  {
			"objects_id": "7",
			"location_id": "5ca72064eca4fe02912d0e8a",
			"object_name": "Hall 7 - Front Dimmer",
			"created": "2019-04-05T09:23:13.482Z",
			"template_info": {
				"fn": [{
					"io_point_name": "Dimmer",
					"function_parameter_name": "Dimmer",
					"_id": "5ca715b6a6902702c895fe16",
					"function_name": "DimmingControl"
				}],
				"rndl": [],
				"rnsc": [],
				"rnan": []
			},
			"iop_infor": [{
				"key": "Dimmer",
				"value": "bacnet:\/\/252_192,168,1,252,186,192\/analog-value\/26\/present-value?_=AO_3_PWM",
				"data_iop": {
					"_id": "5ca7148aa6902702c895fe10",
					"style": "userlookup",
					"pointproperty": "5ca7146ca6902702c895fe04",
					"pointtype": "Multistate Value",
					"pointname": "Dimmer"
				},
				"_id": "5ca71e81eca4fe02912d0e82"
			}],
			"property": {
				"installed_date": "04\/01\/2019 5:23 PM",
				"serial_no": "A",
				"name": "Hall 7 - Front Dimmer"
			}
		}, {
			"objects_id": "2",
			"object_name": "Hall 7 - Projector Back",
			"location_id": "5ca72064eca4fe02912d0e8a",
			"created": "2019-04-05T09:15:34.781Z",
			"property": {
				"name": "Hall 7 - Projector Back",
				"serial_no": "0",
				"installed_date": "04\/01\/2019 5:14 PM"
			},
			"iop_infor": [{
				"id": "5ca71cb6a6902702c895fe20",
				"key": "SwitchOnOff",
				"value": "bacnet:\/\/252_192,168,1,252,186,192\/binary-value\/15\/present-value?_=DO_3",
				"data_iop": {
					"id": "5ca71319a6902702c895fdfe",
					"pointproperty": "5be2a7695ede512122a1b899",
					"pointtype": "Binary Output",
					"pointname": "SwitchOnOff"
				}
			}],
			"template_info": {
				"fn": [{
					"function_name": "Swtich",
					"id": "5ca716b6a6902702c895fe1c",
					"function_parameter_name": "STOP START",
					"io_point_name": "SwitchOnOff"
				}],
				"rndl": [],
				"rnsc": [],
				"rnan": []
			}
		 }, {
			"objects_id": "9",
			"object_name": "Hall 7 - Lighting Back",
			"location_id": "5ca72064eca4fe02912d0e8a",
			"created": "2019-04-05T09:23:13.482Z",
			"template_info": {
				"fn": [{
					"io_point_name": "SwitchOpenClose",
					"function_parameter_name": "STOP START",
					"_id": "5ca715b6a6902702c895fe16",
					"function_name": "SwitchControl"
				}],
				"rndl": [],
				"rnsc": [],
				"rnan": []
			},
			"iop_infor": [{
				"key": "SwitchOpenClose",
				"value": "bacnet:\/\/252_192,168,1,252,186,192\/binary-value\/13\/present-value?_=DO_1",
				"data_iop": {
					"_id": "5ca71319a6902702c895fdfe",
					"pointproperty": "5be2a7695ede512122a1b852",
					"pointtype": "Binary Output",
					"pointname": "SwitchOpenClose"
				},
				"_id": "5ca71f12eca4fe02912d0e84"
			}],
			"property": {
				"name": "Hall 7 - Lighting Back",
				"serial_no": "A",
				"installed_date": "04\/01\/2019 5:23 PM"
			}
		}, {
			"objects_id": "3",
			"object_name": "Hall 7 - Printer A",
			"location_id": "5ca72064eca4fe02912d0e8a",
			"created": "2019-04-05T09:23:13.482Z",
			"template_info": {
				"fn": [{
					"function_name": "SwitchControl",
					"_id": "5ca715b6a6902702c895fe16",
					"function_parameter_name": "STOP START",
					"io_point_name": "SwitchOpenClose"
				}],
				"rndl": [],
				"rnsc": [],
				"rnan": []
			},
			"iop_infor": [{
				"key": "SwitchOpenClose",
				"value": "bacnet:\/\/252_192,168,1,252,186,192\/binary-value\/14\/present-value?_=DO_2",
				"data_iop": {
					"_id": "5ca71319a6902702c895fdfe",
					"pointproperty": "5be2a7695ede512122a1b852",
					"pointtype": "Binary Output",
					"pointname": "SwitchOpenClose"
				},
				"_id": "5ca71f12eca4fe02912d0e84"
			}],
			"property": {
				"installed_date": "04\/01\/2019 5:23 PM",
				"serial_no": "A",
				"name": "Hall 7 - Printer A"
			}
		}, {
			"objects_id": "4",
			"object_name": "Hall 7 - Printer B",
			"location_id": "5ca72064eca4fe02912d0e8a",
			"created": "2019-04-05T09:23:13.482Z",
			"template_info": {
				"fn": [{
					"function_name": "SwitchControl",
					"_id": "5ca715b6a6902702c895fe16",
					"function_parameter_name": "STOP START",
					"io_point_name": "SwitchOpenClose"
				}],
				"rndl": [],
				"rnsc": [],
				"rnan": []
			},
			"iop_infor": [{
				"key": "SwitchOpenClose",
				"value": "bacnet:\/\/252_192,168,1,252,186,192\/binary-value\/14\/present-value?_=DO_2",
				"data_iop": {
					"_id": "5ca71319a6902702c895fdfe",
					"pointproperty": "5be2a7695ede512122a1b852",
					"pointtype": "Binary Output",
					"pointname": "SwitchOpenClose"
				},
				"_id": "5ca71f12eca4fe02912d0e84"
			}],
			"property": {
				"installed_date": "04\/01\/2019 5:23 PM",
				"serial_no": "A",
				"name": "Hall 7 - Printer B"
			}
		}, {
			"objects_id": "5",
			"object_name": "Hall 7 - Door Front Left",
			"location_id": "5ca72064eca4fe02912d0e8a",
			"created": "2019-04-05T09:15:34.781Z",
			"template_info": {
				"fn": [{
					"function_name": "lockUnlockControl",
					"_id": "5ca715b6a6902702c895fe16",
					"function_parameter_name": "Lock Unlock",
					"io_point_name": "SwitchLockUnlock"
				}],
				"rndl": [],
				"rnsc": [],
				"rnan": []
			},
			"iop_infor": [{
				"key": "SwitchLockUnlock",
				"value": "",
				"data_iop": {
					"_id": "5ca71319a6902702c895fdfe",
					"pointproperty": "5be2a7695ede512122a1b999",
					"pointtype": "Binary Output",
					"pointname": "SwitchLockUnlock"
				},
				"_id": "5caac68fbec78f02d5096a47"
			}],
			"dynamic_property": [],
			"property": {
				"installed_date": "04\/01\/2019 5:14 PM",
				"serial_no": "0",
				"name": "Hall 7 - Door Front Left"
			}
		}, {
			"objects_id": "6",
			"object_name": "Hall 7 - Door Front Right",
			"location_id": "5ca72064eca4fe02912d0e8a",
			"created": "2019-04-05T09:15:34.781Z",
			"template_info": {
				"fn": [{
					"function_name": "lockUnlockControl",
					"_id": "5ca715b6a6902702c895fe16",
					"function_parameter_name": "Lock Unlock",
					"io_point_name": "SwitchLockUnlock"
				}],
				"rndl": [],
				"rnsc": [],
				"rnan": []
			},
			"iop_infor": [{
				"key": "SwitchLockUnlock",
				"value": "",
				"data_iop": {
					"_id": "5ca71319a6902702c895fdfe",
					"pointproperty": "5be2a7695ede512122a1b999",
					"pointtype": "Binary Output",
					"pointname": "SwitchLockUnlock"
				},
				"_id": "5caac68fbec78f02d5096a47"
			}],
			"dynamic_property": [],
			"property": {
				"installed_date": "04\/01\/2019 5:14 PM",
				"serial_no": "0",
				"name": "Hall 7 - Door Front Right"
			}
		}, {
			"objects_id": "7",
			"object_name": "Hall 7 - Door Back Left",
			"location_id": "5ca72064eca4fe02912d0e8a",
			"created": "2019-04-05T09:15:34.781Z",
			"template_info": {
				"fn": [{
					"function_name": "lockUnlockControl",
					"_id": "5ca715b6a6902702c895fe16",
					"function_parameter_name": "Lock Unlock",
					"io_point_name": "SwitchLockUnlock"
				}],
				"rndl": [],
				"rnsc": [],
				"rnan": []
			},
			"iop_infor": [{
				"key": "SwitchLockUnlock",
				"value": "",
				"data_iop": {
					"_id": "5ca71319a6902702c895fdfe",
					"pointproperty": "5be2a7695ede512122a1b999",
					"pointtype": "Binary Output",
					"pointname": "SwitchLockUnlock"
				},
				"_id": "5caac68fbec78f02d5096a47"
			}],
			"dynamic_property": [],
			"property": {
				"installed_date": "04\/01\/2019 5:14 PM",
				"serial_no": "0",
				"name": "Hall 7 - Door Front Left"
			}
		}, {
			"objects_id": "8",
			"object_name": "Hall 7 - Door Back Right",
			"location_id": "5ca72064eca4fe02912d0e8a",
			"created": "2019-04-05T09:15:34.781Z",
			"template_info": {
				"fn": [{
					"function_name": "lockUnlockControl",
					"_id": "5ca715b6a6902702c895fe16",
					"function_parameter_name": "Lock Unlock",
					"io_point_name": "SwitchLockUnlock"
				}],
				"rndl": [],
				"rnsc": [],
				"rnan": []
			},
			"iop_infor": [{
				"key": "SwitchLockUnlock",
				"value": "",
				"data_iop": {
					"_id": "5ca71319a6902702c895fdfe",
					"pointproperty": "5be2a7695ede512122a1b999",
					"pointtype": "Binary Output",
					"pointname": "SwitchLockUnlock"
				},
				"_id": "5caac68fbec78f02d5096a47"
			}],
			"dynamic_property": [],
			"property": {
				"installed_date": "04\/01\/2019 5:14 PM",
				"serial_no": "0",
				"name": "Hall 7 - Door Back Right"
			}
		}, {
			"objects_id": "9",
			"object_name": "Hall 7 - Lighting Front A",
			"location_id": "5ca72064eca4fe02912d0e8a",
			"created": "2019-04-05T09:23:13.482Z",
			"template_info": {
				"fn": [{
					"io_point_name": "SwitchOnOff",
					"function_parameter_name": "OFF ON",
					"_id": "5ca715b6a6902702c895fe16",
					"function_name": "SwitchControl"
				}],
				"rndl": [],
				"rnsc": [],
				"rnan": []
			},
			"iop_infor": [{
				"key": "SwitchOnOff",
				"value": "bacnet:\/\/252_192,168,1,252,186,192\/binary-value\/13\/present-value?_=DO_1",
				"data_iop": {
					"_id": "5ca71319a6902702c895fdfe",
					"pointproperty": "5be2a7695ede512122a1b910",
					"pointtype": "Binary Output",
					"pointname": "SwitchOnOff"
				},
				"_id": "5ca71f12eca4fe02912d0e84"
			}],
			"property": {
				"name": "Hall 7 - Lighting Front A",
				"serial_no": "A",
				"installed_date": "04\/01\/2019 5:23 PM"
			}
		}, {
			"objects_id": "10",
			"object_name": "Hall 7 - Lighting Front B",
			"location_id": "5ca72064eca4fe02912d0e8a",
			"created": "2019-04-05T09:23:13.482Z",
			"template_info": {
				"fn": [{
					"io_point_name": "SwitchOnOff",
					"function_parameter_name": "OFF ON",
					"_id": "5ca715b6a6902702c895fe16",
					"function_name": "SwitchControl"
				}],
				"rndl": [],
				"rnsc": [],
				"rnan": []
			},
			"iop_infor": [{
				"key": "SwitchOnOff",
				"value": "bacnet:\/\/252_192,168,1,252,186,192\/binary-value\/13\/present-value?_=DO_1",
				"data_iop": {
					"_id": "5ca71319a6902702c895fdfe",
					"pointproperty": "5be2a7695ede512122a1b910",
					"pointtype": "Binary Output",
					"pointname": "SwitchOnOff"
				},
				"_id": "5ca71f12eca4fe02912d0e84"
			}],
			"property": {
				"name": "Hall 7 - Lighting Front B",
				"serial_no": "A",
				"installed_date": "04\/01\/2019 5:23 PM"
			}
		}, {
			"objects_id": "11",
			"object_name": "Hall 7 - Lighting Back A",
			"location_id": "5ca72064eca4fe02912d0e8a",
			"created": "2019-04-05T09:23:13.482Z",
			"template_info": {
				"fn": [{
					"io_point_name": "SwitchOnOff",
					"function_parameter_name": "OFF ON",
					"_id": "5ca715b6a6902702c895fe16",
					"function_name": "SwitchControl"
				}],
				"rndl": [],
				"rnsc": [],
				"rnan": []
			},
			"iop_infor": [{
				"key": "SwitchOnOff",
				"value": "bacnet:\/\/252_192,168,1,252,186,192\/binary-value\/13\/present-value?_=DO_1",
				"data_iop": {
					"_id": "5ca71319a6902702c895fdfe",
					"pointproperty": "5be2a7695ede512122a1b910",
					"pointtype": "Binary Output",
					"pointname": "SwitchOnOff"
				},
				"_id": "5ca71f12eca4fe02912d0e84"
			}],
			"property": {
				"name": "Hall 7 - Lighting Back A",
				"serial_no": "A",
				"installed_date": "04\/01\/2019 5:23 PM"
			}
		}, {
			"objects_id": "12",
			"object_name": "Hall 7 - Lighting Back B",
			"location_id": "5ca72064eca4fe02912d0e8a",
			"created": "2019-04-05T09:23:13.482Z",
			"template_info": {
				"fn": [{
					"io_point_name": "SwitchOnOff",
					"function_parameter_name": "OFF ON",
					"_id": "5ca715b6a6902702c895fe16",
					"function_name": "SwitchControl"
				}],
				"rndl": [],
				"rnsc": [],
				"rnan": []
			},
			"iop_infor": [{
				"key": "SwitchOnOff",
				"value": "bacnet:\/\/252_192,168,1,252,186,192\/binary-value\/13\/present-value?_=DO_1",
				"data_iop": {
					"_id": "5ca71319a6902702c895fdfe",
					"pointproperty": "5be2a7695ede512122a1b910",
					"pointtype": "Binary Output",
					"pointname": "SwitchOnOff"
				},
				"_id": "5ca71f12eca4fe02912d0e84"
			}],
			"property": {
				"name": "Hall 7 - Lighting Back B",
				"serial_no": "A",
				"installed_date": "04\/01\/2019 5:23 PM"
			}
		}, {
			"objects_id": "13",
			"object_name": "Hall 7 - AirCon Front Left",
			"location_id": "5ca72064eca4fe02912d0e8a",
			"created": "2019-04-05T09:20:34.033Z",
			"template_info": {
				"fn": [{
					"io_point_name": "SwitchFanSpeed",
					"function_parameter_name": "Stop Start",
					"_id": "5ca715b6a6902702c895fe16",
					"function_name": "OpenCloseControl"
				}, {
					"io_point_name": "TempSetpoint",
					"function_parameter_name": "Room Temp Set Point",
					"_id": "5ca71689a6902702c895fe1a",
					"function_name": "AdjustSetPoint"
				}],
				"rndl": [],
				"rnsc": [],
				"rnan": []
			},
			"iop_infor": [{
				"key": "SwitchFanSpeed",
				"value": "bacnet:\/\/252_192,168,1,252,186,192\/analog-value\/24\/present-value?_=AO_1_PWM",
				"data_iop": {
					"style": "userlookup",
					"_id": "5ca71319a6902702c895fdfe",
					"pointproperty": "5caac33314175702da11cea3",
					"pointtype": "Multistate Value",
					"pointname": "SwitchFanSpeed"
				},
				"_id": "5caac57abec78f02d5096a43"
			}, {
				"key": "TempSetpoint",
				"value": "bacnet:\/\/252_192,168,1,252,186,192\/analog-value\/84\/present-value?_=Fan1_TSP_1_11",
				"data_iop": {
					"_id": "5ca71356a6902702c895fe00",
					"pointproperty": "5be2a7af5ede512122a1b85f",
					"pointtype": "Analog Value",
					"pointname": "TempSetpoint"
				},
				"_id": "5caac57abec78f02d5096a42"
			}],
			"property": {
				"name": "Hall 7 - AirCon Front Left",
				"serial_no": "1",
				"installed_date": "04\/01\/2019 5:20 PM"
			}
		}, {
			"objects_id": "14",
			"object_name": "Hall 7 - AirCon Front Right",
			"location_id": "5ca72064eca4fe02912d0e8a",
			"created": "2019-04-05T09:20:34.033Z",
			"template_info": {
				"fn": [{
					"io_point_name": "SwitchFanSpeed",
					"function_parameter_name": "Stop Start",
					"_id": "5ca715b6a6902702c895fe16",
					"function_name": "OpenCloseControl"
				}, {
					"io_point_name": "TempSetpoint",
					"function_parameter_name": "Room Temp Set Point",
					"_id": "5ca71689a6902702c895fe1a",
					"function_name": "AdjustSetPoint"
				}],
				"rndl": [],
				"rnsc": [],
				"rnan": []
			},
			"iop_infor": [{
				"key": "SwitchFanSpeed",
				"value": "bacnet:\/\/252_192,168,1,252,186,192\/analog-value\/24\/present-value?_=AO_1_PWM",
				"data_iop": {
					"style": "userlookup",
					"_id": "5ca71319a6902702c895fdfe",
					"pointproperty": "5caac33314175702da11cea3",
					"pointtype": "Multistate Value",
					"pointname": "SwitchFanSpeed"
				},
				"_id": "5caac57abec78f02d5096a43"
			}, {
				"key": "TempSetpoint",
				"value": "bacnet:\/\/252_192,168,1,252,186,192\/analog-value\/84\/present-value?_=Fan1_TSP_1_11",
				"data_iop": {
					"_id": "5ca71356a6902702c895fe00",
					"pointproperty": "5be2a7af5ede512122a1b85f",
					"pointtype": "Analog Value",
					"pointname": "TempSetpoint"
				},
				"_id": "5caac57abec78f02d5096a42"
			}],
			"property": {
				"name": "Hall 7 - AirCon Front Right",
				"serial_no": "1",
				"installed_date": "04\/01\/2019 5:20 PM"
			}
		}, {
			"objects_id": "15",
			"object_name": "Hall 7 - AirCon Back Left",
			"location_id": "5ca72064eca4fe02912d0e8a",
			"created": "2019-04-05T09:20:34.033Z",
			"template_info": {
				"fn": [{
					"io_point_name": "SwitchFanSpeed",
					"function_parameter_name": "Stop Start",
					"_id": "5ca715b6a6902702c895fe16",
					"function_name": "OpenCloseControl"
				}, {
					"io_point_name": "TempSetpoint",
					"function_parameter_name": "Room Temp Set Point",
					"_id": "5ca71689a6902702c895fe1a",
					"function_name": "AdjustSetPoint"
				}],
				"rndl": [],
				"rnsc": [],
				"rnan": []
			},
			"iop_infor": [{
				"key": "SwitchFanSpeed",
				"value": "bacnet:\/\/252_192,168,1,252,186,192\/analog-value\/24\/present-value?_=AO_1_PWM",
				"data_iop": {
					"style": "userlookup",
					"_id": "5ca71319a6902702c895fdfe",
					"pointproperty": "5caac33314175702da11cea3",
					"pointtype": "Multistate Value",
					"pointname": "SwitchFanSpeed"
				},
				"_id": "5caac57abec78f02d5096a43"
			}, {
				"key": "TempSetpoint",
				"value": "bacnet:\/\/252_192,168,1,252,186,192\/analog-value\/84\/present-value?_=Fan1_TSP_1_11",
				"data_iop": {
					"_id": "5ca71356a6902702c895fe00",
					"pointproperty": "5be2a7af5ede512122a1b85f",
					"pointtype": "Analog Value",
					"pointname": "TempSetpoint"
				},
				"_id": "5caac57abec78f02d5096a42"
			}],
			"property": {
				"name": "Hall 7 - AirCon Back Left",
				"serial_no": "1",
				"installed_date": "04\/01\/2019 5:20 PM"
			}
		}, {
			"objects_id": "16",
			"object_name": "Hall 7 - AirCon Back Right",
			"location_id": "5ca72064eca4fe02912d0e8a",
			"created": "2019-04-05T09:20:34.033Z",
			"template_info": {
				"fn": [{
					"io_point_name": "SwitchFanSpeed",
					"function_parameter_name": "Stop Start",
					"_id": "5ca715b6a6902702c895fe16",
					"function_name": "OpenCloseControl"
				}, {
					"io_point_name": "TempSetpoint",
					"function_parameter_name": "Room Temp Set Point",
					"_id": "5ca71689a6902702c895fe1a",
					"function_name": "AdjustSetPoint"
				}],
				"rndl": [],
				"rnsc": [],
				"rnan": []
			},
			"iop_infor": [{
				"key": "SwitchFanSpeed",
				"value": "bacnet:\/\/252_192,168,1,252,186,192\/analog-value\/24\/present-value?_=AO_1_PWM",
				"data_iop": {
					"style": "userlookup",
					"_id": "5ca71319a6902702c895fdfe",
					"pointproperty": "5caac33314175702da11cea3",
					"pointtype": "Multistate Value",
					"pointname": "SwitchFanSpeed"
				},
				"_id": "5caac57abec78f02d5096a43"
			}, {
				"key": "TempSetpoint",
				"value": "bacnet:\/\/252_192,168,1,252,186,192\/analog-value\/84\/present-value?_=Fan1_TSP_1_11",
				"data_iop": {
					"_id": "5ca71356a6902702c895fe00",
					"pointproperty": "5be2a7af5ede512122a1b85f",
					"pointtype": "Analog Value",
					"pointname": "TempSetpoint"
				},
				"_id": "5caac57abec78f02d5096a42"
			}],
			"property": {
				"name": "Hall 7 - AirCon Back Right",
				"serial_no": "1",
				"installed_date": "04\/01\/2019 5:20 PM"
			}
		}, {
			"objects_id": "17",
			"location_id": "5ca72064eca4fe02912d0e8a",
			"object_name": "Hall 1 - Front Dimmer A",
			"created": "2019-04-05T09:23:13.482Z",
			"template_info": {
				"fn": [{
					"io_point_name": "Dimmer",
					"function_parameter_name": "Dimmer",
					"_id": "5ca715b6a6902702c895fe16",
					"function_name": "DimmingControl"
				}],
				"rndl": [],
				"rnsc": [],
				"rnan": []
			},
			"iop_infor": [{
				"key": "Dimmer",
				"value": "bacnet:\/\/252_192,168,1,252,186,192\/analog-value\/26\/present-value?_=AO_3_PWM",
				"data_iop": {
					"_id": "5ca7148aa6902702c895fe10",
					"style": "userlookup",
					"pointproperty": "5ca7146ca6902702c895fe04",
					"pointtype": "Multistate Value",
					"pointname": "Dimmer"
				},
				"_id": "5ca71e81eca4fe02912d0e82"
			}],
			"property": {
				"installed_date": "04\/01\/2019 5:23 PM",
				"serial_no": "A",
				"name": "Hall 1 - Front Dimmer A"
			}
		}, {
			"objects_id": "18",
			"location_id": "5ca72064eca4fe02912d0e8a",
			"object_name": "Hall 1 - Front Dimmer B",
			"created": "2019-04-05T09:23:13.482Z",
			"template_info": {
				"fn": [{
					"io_point_name": "Dimmer",
					"function_parameter_name": "Dimmer",
					"_id": "5ca715b6a6902702c895fe16",
					"function_name": "DimmingControl"
				}],
				"rndl": [],
				"rnsc": [],
				"rnan": []
			},
			"iop_infor": [{
				"key": "Dimmer",
				"value": "bacnet:\/\/252_192,168,1,252,186,192\/analog-value\/26\/present-value?_=AO_3_PWM",
				"data_iop": {
					"_id": "5ca7148aa6902702c895fe10",
					"style": "userlookup",
					"pointproperty": "5ca7146ca6902702c895fe04",
					"pointtype": "Multistate Value",
					"pointname": "Dimmer"
				},
				"_id": "5ca71e81eca4fe02912d0e82"
			}],
			"property": {
				"installed_date": "04\/01\/2019 5:23 PM",
				"serial_no": "A",
				"name": "Hall 1 - Front Dimmer B"
			}
		}, {
			"objects_id": "19",
			"location_id": "5ca72064eca4fe02912d0e8a",
			"object_name": "Hall 1 - Front Dimmer C",
			"created": "2019-04-05T09:23:13.482Z",
			"template_info": {
				"fn": [{
					"io_point_name": "Dimmer",
					"function_parameter_name": "Dimmer",
					"_id": "5ca715b6a6902702c895fe16",
					"function_name": "DimmingControl"
				}],
				"rndl": [],
				"rnsc": [],
				"rnan": []
			},
			"iop_infor": [{
				"key": "Dimmer",
				"value": "bacnet:\/\/252_192,168,1,252,186,192\/analog-value\/26\/present-value?_=AO_3_PWM",
				"data_iop": {
					"_id": "5ca7148aa6902702c895fe10",
					"style": "userlookup",
					"pointproperty": "5ca7146ca6902702c895fe04",
					"pointtype": "Multistate Value",
					"pointname": "Dimmer"
				},
				"_id": "5ca71e81eca4fe02912d0e82"
			}],
			"property": {
				"installed_date": "04\/01\/2019 5:23 PM",
				"serial_no": "A",
				"name": "Hall 1 - Front Dimmer C"
			}
		}, {
			"objects_id": "20",
			"location_id": "5ca72064eca4fe02912d0e8a",
			"object_name": "Hall 1 - Front Dimmer D",
			"created": "2019-04-05T09:23:13.482Z",
			"template_info": {
				"fn": [{
					"io_point_name": "Dimmer",
					"function_parameter_name": "Dimmer",
					"_id": "5ca715b6a6902702c895fe16",
					"function_name": "DimmingControl"
				}],
				"rndl": [],
				"rnsc": [],
				"rnan": []
			},
			"iop_infor": [{
				"key": "Dimmer",
				"value": "bacnet:\/\/252_192,168,1,252,186,192\/analog-value\/26\/present-value?_=AO_3_PWM",
				"data_iop": {
					"_id": "5ca7148aa6902702c895fe10",
					"style": "userlookup",
					"pointproperty": "5ca7146ca6902702c895fe04",
					"pointtype": "Multistate Value",
					"pointname": "Dimmer"
				},
				"_id": "5ca71e81eca4fe02912d0e82"
			}],
			"property": {
				"installed_date": "04\/01\/2019 5:23 PM",
				"serial_no": "A",
				"name": "Hall 1 - Front Dimmer D"
			}
		}
		],
		"userlookups": [{
			"_id": "5be2a7695ede512122a1b852",
			"user": "5bd7c181fc339d03677fc233",
			"name": "Stop Start",
			"type": "LK.PointBinaryStatus",
			"__v": 1,
			"created": "2018-11-07T08:50:49.014Z",
			"lists": [{
				"value": "0",
				"display": "STOP",
				"_id": "5be2a7695ede512122a1b854"
			}, {
				"value": "1",
				"display": "START",
				"_id": "5be2a7695ede512122a1b853"
			}],
			"id": "5be2a7695ede512122a1b852"
		}, {
			"_id": "5be2a7695ede512122a1b910",
			"user": "5bd7c181fc339d03677fc233",
			"name": "OFF ON",
			"type": "LK.PointBinaryStatus",
			"__v": 1,
			"created": "2018-11-07T08:50:49.014Z",
			"lists": [{
				"value": "0",
				"display": "OFF",
				"_id": "5be2a7695ede512122a1b854"
			}, {
				"value": "1",
				"display": "ON",
				"_id": "5be2a7695ede512122a1b853"
			}],
			"id": "5be2a7695ede512122a1b910"
		}, {
			"_id": "5be2a7695ede512122a1b899",
			"user": "5bd7c181fc339d03677fc233",
			"name": "Stop Start",
			"type": "LK.PointBinaryStatus",
			"__v": 1,
			"created": "2018-11-07T08:50:49.014Z",
			"lists": [{
				"value": "0",
				"display": "ON",
				"_id": "5be2a7695ede512122a1b854"
			}, {
				"value": "1",
				"display": "OFF",
				"_id": "5be2a7695ede512122a1b853"
			}],
			"id": "5be2a7695ede512122a1b899"
		}, {
			"_id": "5be2a7695ede512122a1b999",
			"user": "5bd7c181fc339d03677fc233",
			"name": "Stop Start",
			"type": "LK.PointBinaryStatus",
			"__v": 1,
			"created": "2018-11-07T08:50:49.014Z",
			"lists": [{
				"value": "0",
				"display": "LOCK",
				"_id": "5be2a7695ede512122a1b854"
			}, {
				"value": "1",
				"display": "UNLOCK",
				"_id": "5be2a7695ede512122a1b853"
			}],
			"id": "5be2a7695ede512122a1b999"
		}, {
			"_id": "5caac33314175702da11cea3",
			"user": "5c3c6329c92e905f5cc226af",
			"name": "Fan 3 Speed To AO",
			"type": "LK.PointMultistateStatus",
			"created": "2019-04-08T03:42:43.229Z",
			"lists": [{
				"value": "0",
				"display": "Off",
				"_id": "5caac33314175702da11cea7"
			}, {
				"value": "700",
				"display": "Low Speed",
				"_id": "5caac33314175702da11cea6"
			}, {
				"value": "850",
				"display": "Medium Speed",
				"_id": "5caac33314175702da11cea5"
			}, {
				"display": "High Speed",
				"value": "1000",
				"_id": "5caac33314175702da11cea4"
			}],
			"__v": 7,
			"id": "5caac33314175702da11cea3"
		}, {
			"_id": "5be2a7af5ede512122a1b85f",
			"user": "5bd7c181fc339d03677fc233",
			"name": "Room Temp Set Point",
			"type": "LK.PointAnalogRange",
			"__v": 1,
			"created": "2018-11-07T08:51:59.611Z",
			"lists": [{
				"display": "SETTING MAX LIMIT",
				"value": "28",
				"_id": "5be2a7af5ede512122a1b868"
			}, {
				"display": "SETTING MIN LIMIT",
				"value": "22",
				"_id": "5be2a7af5ede512122a1b867"
			}, {
				"display": "INCREMENT",
				"value": "0.5",
				"_id": "5be2a7af5ede512122a1b866"
			}, {
				"display": "DECIMAL POINT",
				"value": "1",
				"_id": "5be2a7af5ede512122a1b865"
			}, {
				"display": "THRESHOLD HIGH HIGH LIMIT",
				"value": "0",
				"_id": "5be2a7af5ede512122a1b864"
			}, {
				"display": "THRESHOLD HIGH LIMIT",
				"value": "0",
				"_id": "5be2a7af5ede512122a1b863"
			}, {
				"display": "THRESHOLD LOW LIMIT",
				"value": "0",
				"_id": "5be2a7af5ede512122a1b862"
			}, {
				"display": "THRESHOLD LOW LOW LIMIT",
				"value": "0",
				"_id": "5be2a7af5ede512122a1b861"
			}, {
				"display": "LOG RATE",
				"value": "5b46f1d1f3b4787a89193c0b",
				"_id": "5be2a7af5ede512122a1b860"
			}],
			"id": "5be2a7af5ede512122a1b85f"
		}, {
			"_id": "5ca7146ca6902702c895fe04",
			"user": "5bd7c181fc339d03677fc233",
			"name": "Dimmer 10 Stage",
			"type": "LK.PointMultistateStatus",
			"created": "2019-04-05T08:40:12.102Z",
			"lists": [{
				"display": "Off",
				"value": "0",
				"_id": "5ca7146ca6902702c895fe0f"
			}, {
				"display": "Stage1",
				"value": "100",
				"_id": "5ca7146ca6902702c895fe0e"
			}, {
				"display": "Stage2",
				"value": "200",
				"_id": "5ca7146ca6902702c895fe0d"
			}, {
				"display": "Stage3",
				"value": "300",
				"_id": "5ca7146ca6902702c895fe0c"
			}, {
				"display": "Stage4",
				"value": "400",
				"_id": "5ca7146ca6902702c895fe0b"
			}, {
				"display": "Stage5",
				"value": "500",
				"_id": "5ca7146ca6902702c895fe0a"
			}, {
				"display": "Stage6",
				"value": "600",
				"_id": "5ca7146ca6902702c895fe09"
			}, {
				"display": "Stage7",
				"value": "700",
				"_id": "5ca7146ca6902702c895fe08"
			}, {
				"display": "Stage8",
				"value": "800",
				"_id": "5ca7146ca6902702c895fe07"
			}, {
				"display": "Stage9",
				"value": "900",
				"_id": "5ca7146ca6902702c895fe06"
			}, {
				"display": "Fully On",
				"value": "1000",
				"_id": "5ca7146ca6902702c895fe05"
			}],
			"__v": 3,
			"id": "5ca7146ca6902702c895fe04"
		}]
	}

}